{
    "description": "Select and Fill Details",
    "status": "working",
    "schema": {
        "title": "Fill Details",
        "type": "object",
        "properties": [
            {
                "key": "bank_details",
                "type": "array",
                "title": "Select Bank and enter relationship details",
                "interface": {
                    "control": "details"
                },
                "enumerations": {
                    "source": "values",
                    "values": [
                        {
                            "bank": "HDFC Bank",
                            "code": "hdfc"
                        },
                        {
                            "bank": "ICICI Bank",
                            "code": "icici"
                        },
                        {
                            "bank": "Kotak Mahindra Bank",
                            "code": "ktk"
                        }
                    ],
                    "labelKey": "bank",
                    "valueKey": "code"
                },
                "detail_schema": {
                    "title": "Relationship with Bank",
                    "type": "object",
                    "properties": [
                        {
                            "key": "amount",
                            "type": "number",
                            "title": "Loan Amount till Date"
                        },
                        {
                            "key": "since",
                            "type": "number",
                            "title": "Since how many years are you associated with this Bank?"
                        }
                    ]
                }
            },
            {
                "key": "order_details",
                "type": "array",
                "title": "Select Item and Quantity",
                "interface": {
                    "control": "details"
                },
                "enumerations": {
                    "source": "values",
                    "values": [
                        {
                            "item": "Basmati Rice",
                            "sku": "bm_rice"
                        },
                        {
                            "item": "Whole Wheat Atta",
                            "sku": "ww_atta"
                        },
                        {
                            "item": "Brown Rice",
                            "sku": "br_rice"
                        }
                    ],
                    "labelKey": "item",
                    "valueKey": "sku"
                },
                "detail_schema": {
                    "title": "Enter Item Details",
                    "type": "object",
                    "properties": [
                        {
                            "key": "quantity",
                            "type": "number",
                            "title": "Quantity in Kilos"
                        },
                        {
                            "key": "packing",
                            "type": "string",
                            "title": "How should we pack this?",
                            "interface": {
                                "control": "radio"
                            },
                            "enumerations": {
                                "source": "values",
                                "values": [
                                    "Gunny Bag",
                                    "Carton Box"
                                ]
                            }
                        }
                    ]
                }
            }
        ]
    }
}