{
  "movies": [
    {
      "id": 1,
      "title": "Kabhi Khushi Kabhi Gham",
      "directorId": 1,
      "starringId": [
        1,
        2,
        3
      ]
    },
    {
      "id": 2,
      "title": "Kuch Kuch Hota Hai",
      "directorId": 1,
      "starringId": [
        1,
        3
      ]
    },
    {
      "id": 3,
      "title": "Kal Ho Na Ho",
      "directorId": 1,
      "starringId": [
        1
      ]
    },
    {
      "id": 4,
      "title": "Gangs of Wasseypur",
      "directorId": 2,
      "starringId": [
        5
      ]
    },
    {
      "id": 5,
      "title": "Dev.D",
      "directorId": 2,
      "starringId": [
        4
      ]
    }
  ],
  "directors": [
    {
      "id": 1,
      "name": "Karan Johar"
    },
    {
      "id": 2,
      "name": "Anurag Kashyap"
    }
  ],
  "actors": [
    {
      "id": 1,
      "name": "Sharukh Khan"
    },
    {
      "id": 2,
      "name": "Amitabh Bachhan"
    },
    {
      "id": 3,
      "name": "Kajol"
    },
    {
      "id": 4,
      "name": "Abhay Deol"
    },
    {
      "id": 5,
      "name": "Manoj Bajpai"
    }
  ]
}